<?xml version="1.0" encoding="UTF-8"?>
<glyph name="aring.alt" format="2">
	<advance width="509"/>
	<outline>
		<component base="a.alt"/>
		<component base="ring" xOffset="112"/>
	</outline>
</glyph>
