<?xml version="1.0" encoding="UTF-8"?>
<glyph name="igrave" format="2">
	<advance width="206"/>
	<unicode hex="00EC"/>
	<outline>
		<component base="dotlessi"/>
		<component base="grave" xOffset="-246" yOffset="-1"/>
	</outline>
</glyph>
